\relax 
\providecommand\hyper@newdestlabel[2]{}
\catcode `:\active 
\catcode `;\active 
\catcode `!\active 
\catcode `?\active 
\providecommand\HyperFirstAtBeginDocument{\AtBeginDocument}
\HyperFirstAtBeginDocument{\ifx\hyper@anchor\@undefined
\global\let\oldcontentsline\contentsline
\gdef\contentsline#1#2#3#4{\oldcontentsline{#1}{#2}{#3}}
\global\let\oldnewlabel\newlabel
\gdef\newlabel#1#2{\newlabelxx{#1}#2}
\gdef\newlabelxx#1#2#3#4#5#6{\oldnewlabel{#1}{{#2}{#3}}}
\AtEndDocument{\ifx\hyper@anchor\@undefined
\let\contentsline\oldcontentsline
\let\newlabel\oldnewlabel
\fi}
\fi}
\global\let\hyper@last\relax 
\gdef\HyperFirstAtBeginDocument#1{#1}
\providecommand\HyField@AuxAddToFields[1]{}
\providecommand\HyField@AuxAddToCoFields[2]{}
\select@language{french}
\@writefile{toc}{\select@language{french}}
\@writefile{lof}{\select@language{french}}
\@writefile{lot}{\select@language{french}}
\@writefile{toc}{\contentsline {section}{\numberline {1}Introduction}{3}{section.1}}
\@writefile{toc}{\contentsline {section}{\numberline {2}Composants mxm}{3}{section.2}}
\@writefile{toc}{\contentsline {subsection}{\numberline {2.1}Gather}{3}{subsection.2.1}}
\@writefile{lof}{\contentsline {figure}{\numberline {1}{\ignorespaces osu\_gather, run with srun, default binding: core, using component mxm, msg size=2Ko}}{4}{figure.1}}
\newlabel{gatheryalla}{{1}{4}{osu\_gather, run with srun, default binding: core, using component mxm, msg size=2Ko}{figure.1}{}}
\@writefile{toc}{\contentsline {subsection}{\numberline {2.2}Alltoall}{4}{subsection.2.2}}
\@writefile{lof}{\contentsline {figure}{\numberline {2}{\ignorespaces osu\_alltoall, run with mpirun, default binding, using component mxm, msg size=2Ko}}{5}{figure.2}}
\newlabel{alltoallyalla}{{2}{5}{osu\_alltoall, run with mpirun, default binding, using component mxm, msg size=2Ko}{figure.2}{}}
\@writefile{toc}{\contentsline {section}{\numberline {3}Composant ob1 et openib}{6}{section.3}}
\@writefile{toc}{\contentsline {subsection}{\numberline {3.1}Alltoall}{6}{subsection.3.1}}
\@writefile{lof}{\contentsline {figure}{\numberline {3}{\ignorespaces osu\_alltoall, run with mpirun, default binding pml=ob1 and btl=openib, msg size=2Ko}}{7}{figure.3}}
\newlabel{alltoallopenib}{{3}{7}{osu\_alltoall, run with mpirun, default binding pml=ob1 and btl=openib, msg size=2Ko}{figure.3}{}}
\@writefile{toc}{\contentsline {subsection}{\numberline {3.2}Gather}{7}{subsection.3.2}}
\@writefile{lof}{\contentsline {figure}{\numberline {4}{\ignorespaces osu\_gather, binding:core pml=ob1 and btl=openib, msg size=2Ko}}{8}{figure.4}}
\newlabel{gatherob1}{{4}{8}{osu\_gather, binding:core pml=ob1 and btl=openib, msg size=2Ko}{figure.4}{}}
\@writefile{toc}{\contentsline {section}{\numberline {4}Options de binding}{8}{section.4}}
\@writefile{toc}{\contentsline {subsection}{\numberline {4.1}Binding et mapping}{8}{subsection.4.1}}
\@writefile{lof}{\contentsline {figure}{\numberline {5}{\ignorespaces Osu\_alltoall one thread per physical core, msg size=2Ko, using component \textbf  {mxm}}}{9}{figure.5}}
\newlabel{nothread}{{5}{9}{Osu\_alltoall one thread per physical core, msg size=2Ko, using component \textbf {mxm}}{figure.5}{}}
\@writefile{toc}{\contentsline {subsection}{\numberline {4.2}Distribution block et cyclic}{9}{subsection.4.2}}
\@writefile{lof}{\contentsline {figure}{\numberline {6}{\ignorespaces Osu\_alltoall multithread : four threads per physical core, msg size=2Ko, using component \textbf  {mxm}}}{10}{figure.6}}
\newlabel{thread}{{6}{10}{Osu\_alltoall multithread : four threads per physical core, msg size=2Ko, using component \textbf {mxm}}{figure.6}{}}
\@writefile{lof}{\contentsline {figure}{\numberline {7}{\ignorespaces Osu\_gather distribution: cyclic , binding core, msg size=2Ko }}{11}{figure.7}}
\newlabel{gathercyclic}{{7}{11}{Osu\_gather distribution: cyclic , binding core, msg size=2Ko}{figure.7}{}}
\@writefile{toc}{\contentsline {subsection}{\numberline {4.3}N\IeC {\oe }uds partageant le m\IeC {\^e}me switch}{11}{subsection.4.3}}
\@writefile{lof}{\contentsline {figure}{\numberline {8}{\ignorespaces Osu\_gather distribution: cyclic , binding core, 6 specified and fixed allocation node : pluton100[3-8] sharing same switch, msg size=2Ko }}{12}{figure.8}}
\newlabel{swithcyclique}{{8}{12}{Osu\_gather distribution: cyclic , binding core, 6 specified and fixed allocation node : pluton100[3-8] sharing same switch, msg size=2Ko}{figure.8}{}}
\@writefile{toc}{\contentsline {section}{\numberline {5}Nombre de n\IeC {\oe }ud allou\IeC {\'e} fixe, distribution cyclic}{13}{section.5}}
\@writefile{lof}{\contentsline {figure}{\numberline {9}{\ignorespaces Osu\_gather distribution: cyclic , binding core, 10 fixed allocation node, msg size: 2Ko }}{13}{figure.9}}
\newlabel{noeudfixe}{{9}{13}{Osu\_gather distribution: cyclic , binding core, 10 fixed allocation node, msg size: 2Ko}{figure.9}{}}
\@writefile{toc}{\contentsline {section}{\numberline {6}Taille de message 1Mo}{14}{section.6}}
\@writefile{toc}{\contentsline {subsection}{\numberline {6.1}Gather}{14}{subsection.6.1}}
\@writefile{toc}{\contentsline {subsubsection}{\numberline {6.1.1}Distribution block}{14}{subsubsection.6.1.1}}
\@writefile{lof}{\contentsline {figure}{\numberline {10}{\ignorespaces Osu\_gather distribution: block , binding core, message size : 1Mo}}{14}{figure.10}}
\newlabel{1Mblock}{{10}{14}{Osu\_gather distribution: block , binding core, message size : 1Mo}{figure.10}{}}
\@writefile{toc}{\contentsline {subsubsection}{\numberline {6.1.2}Distribution cyclic}{15}{subsubsection.6.1.2}}
\@writefile{lof}{\contentsline {figure}{\numberline {11}{\ignorespaces Osu\_gather distribution: cyclic, binding core, message size : 1Mo}}{15}{figure.11}}
\newlabel{1Mocyclic}{{11}{15}{Osu\_gather distribution: cyclic, binding core, message size : 1Mo}{figure.11}{}}
\@writefile{toc}{\contentsline {subsection}{\numberline {6.2}Alltoall}{16}{subsection.6.2}}
\@writefile{toc}{\contentsline {subsubsection}{\numberline {6.2.1}Distribution block}{16}{subsubsection.6.2.1}}
\@writefile{lof}{\contentsline {figure}{\numberline {12}{\ignorespaces Osu\_alltoall distribution: block, binding core, message size : 1Mo}}{16}{figure.12}}
\newlabel{all1Moblock}{{12}{16}{Osu\_alltoall distribution: block, binding core, message size : 1Mo}{figure.12}{}}
\@writefile{toc}{\contentsline {subsubsection}{\numberline {6.2.2}Distribution cyclic}{17}{subsubsection.6.2.2}}
\@writefile{lof}{\contentsline {figure}{\numberline {13}{\ignorespaces Osu\_alltoall distribution: cyclic, binding core, message size : 1Mo}}{17}{figure.13}}
\newlabel{all1Moblock}{{13}{17}{Osu\_alltoall distribution: cyclic, binding core, message size : 1Mo}{figure.13}{}}
\@writefile{toc}{\contentsline {section}{\numberline {7}Conclusion}{18}{section.7}}
\bibstyle{abbrv}
\bibcite{slurm}{1}
\bibcite{slurm}{2}
\bibcite{mpirun}{3}
\bibcite{Tuning}{4}
