\relax 
\providecommand\hyper@newdestlabel[2]{}
\providecommand\HyperFirstAtBeginDocument{\AtBeginDocument}
\HyperFirstAtBeginDocument{\ifx\hyper@anchor\@undefined
\global\let\oldcontentsline\contentsline
\gdef\contentsline#1#2#3#4{\oldcontentsline{#1}{#2}{#3}}
\global\let\oldnewlabel\newlabel
\gdef\newlabel#1#2{\newlabelxx{#1}#2}
\gdef\newlabelxx#1#2#3#4#5#6{\oldnewlabel{#1}{{#2}{#3}}}
\AtEndDocument{\ifx\hyper@anchor\@undefined
\let\contentsline\oldcontentsline
\let\newlabel\oldnewlabel
\fi}
\fi}
\global\let\hyper@last\relax 
\gdef\HyperFirstAtBeginDocument#1{#1}
\providecommand*\HyPL@Entry[1]{}
\HyPL@Entry{0<</S/D>>}
\select@language{french}
\@writefile{toc}{\select@language{french}}
\@writefile{lof}{\select@language{french}}
\@writefile{lot}{\select@language{french}}
\HyPL@Entry{1<</S/D>>}
\@writefile{toc}{\contentsline {section}{\numberline {1}Remerciement}{1}{section.1}}
\citation{MPI}
\citation{one-sided}
\@writefile{toc}{\contentsline {section}{\numberline {2}Introduction}{4}{section.2}}
\citation{sequana}
\@writefile{toc}{\contentsline {section}{\numberline {3}Le Stage}{5}{section.3}}
\@writefile{toc}{\contentsline {subsection}{\numberline {3.1}Présentation ATOS}{5}{subsection.3.1}}
\@writefile{toc}{\contentsline {subsubsection}{\numberline {3.1.1}Historique Atos}{5}{subsubsection.3.1.1}}
\@writefile{toc}{\contentsline {subsubsection}{\numberline {3.1.2}Activités}{5}{subsubsection.3.1.2}}
\@writefile{toc}{\contentsline {subsubsection}{\numberline {3.1.3}Présence dans le monde}{5}{subsubsection.3.1.3}}
\@writefile{toc}{\contentsline {subsubsection}{\numberline {3.1.4}Atos-Bull (lieu du stage)}{5}{subsubsection.3.1.4}}
\@writefile{toc}{\contentsline {subsection}{\numberline {3.2}Contexte et objectif du stage}{5}{subsection.3.2}}
\citation{xeon}
\@writefile{toc}{\contentsline {subsection}{\numberline {3.3}Environnement de travail}{6}{subsection.3.3}}
\@writefile{toc}{\contentsline {subsubsection}{\numberline {3.3.1}Méthodologie Agile Scrum}{6}{subsubsection.3.3.1}}
\@writefile{toc}{\contentsline {subsubsection}{\numberline {3.3.2}Intel Xéon-phi KNL}{6}{subsubsection.3.3.2}}
\@writefile{toc}{\contentsline {section}{\numberline {4}État de l'Art: Openmpi}{7}{section.4}}
\@writefile{toc}{\contentsline {subsection}{\numberline {4.1}Arcitecture MCA d'Openmpi}{7}{subsection.4.1}}
\@writefile{lof}{\contentsline {figure}{\numberline {1}{\ignorespaces Architecture MCA d'Openmpi}}{7}{figure.1}}
\newlabel{fig:arch_mpi.PNG}{{1}{7}{Architecture MCA d'Openmpi}{figure.1}{}}
\citation{MPI}
\@writefile{lof}{\contentsline {figure}{\numberline {2}{\ignorespaces Architecture MCA d'Openmpi}}{8}{figure.2}}
\newlabel{fig:mca}{{2}{8}{Architecture MCA d'Openmpi}{figure.2}{}}
\@writefile{toc}{\contentsline {subsubsection}{\numberline {4.1.1}Framworks OMPI et Composant COLL}{8}{subsubsection.4.1.1}}
\citation{CMA}
\@writefile{toc}{\contentsline {subsection}{\numberline {4.2}Vader BTL}{9}{subsection.4.2}}
\@writefile{toc}{\contentsline {subsection}{\numberline {4.3}Alltoall}{9}{subsection.4.3}}
\@writefile{lof}{\contentsline {figure}{\numberline {3}{\ignorespaces Principe de fonctionnement d'un \textbf  {alltoall}}}{10}{figure.3}}
\newlabel{fig:alltoall}{{3}{10}{Principe de fonctionnement d'un \textbf {alltoall}}{figure.3}{}}
\@writefile{toc}{\contentsline {subsection}{\numberline {4.4}Pairwise algorithme}{10}{subsection.4.4}}
\@writefile{lof}{\contentsline {figure}{\numberline {4}{\ignorespaces Principe du fonctionnement du pairwise pour 4 processus}}{11}{figure.4}}
\newlabel{fig:pairwise_principe}{{4}{11}{Principe du fonctionnement du pairwise pour 4 processus}{figure.4}{}}
\@writefile{toc}{\contentsline {subsection}{\numberline {4.5}Bruck algorithme}{12}{subsection.4.5}}
\@writefile{toc}{\contentsline {subsubsection}{\numberline {4.5.1}Étape 1}{12}{subsubsection.4.5.1}}
\@writefile{lof}{\contentsline {figure}{\numberline {5}{\ignorespaces Étape 1 : algorithme alltoall de Bruck pour 4 processus}}{12}{figure.5}}
\newlabel{fig:etape1_bruck}{{5}{12}{Étape 1 : algorithme alltoall de Bruck pour 4 processus}{figure.5}{}}
\@writefile{toc}{\contentsline {subsubsection}{\numberline {4.5.2}Étape 2}{12}{subsubsection.4.5.2}}
\@writefile{toc}{\contentsline {subsubsection}{\numberline {4.5.3}Étape 3}{12}{subsubsection.4.5.3}}
\@writefile{lof}{\contentsline {figure}{\numberline {6}{\ignorespaces Etape 2 de l'algorithme de Bruck pour 4 processus}}{13}{figure.6}}
\newlabel{fig:etape2_bruck}{{6}{13}{Etape 2 de l'algorithme de Bruck pour 4 processus}{figure.6}{}}
\@writefile{toc}{\contentsline {section}{\numberline {5}Travaux effectués}{13}{section.5}}
\@writefile{toc}{\contentsline {subsection}{\numberline {5.1}Comparaison de latence IntelMPI VS OpenMPI}{13}{subsection.5.1}}
\@writefile{toc}{\contentsline {subsubsection}{\numberline {5.1.1}Benchmarks OSU}{14}{subsubsection.5.1.1}}
\@writefile{toc}{\contentsline {subsubsection}{\numberline {5.1.2}Choix du binding avec IntelMpi}{14}{subsubsection.5.1.2}}
\@writefile{lof}{\contentsline {figure}{\numberline {7}{\ignorespaces Osu\_alltoall : taille de message 2ko}}{14}{figure.7}}
\newlabel{fig:alltoall_binding_VS}{{7}{14}{Osu\_alltoall : taille de message 2ko}{figure.7}{}}
\@writefile{lof}{\contentsline {figure}{\numberline {8}{\ignorespaces Osu\_alltoall : taille de message 1Mo}}{15}{figure.8}}
\newlabel{fig:alltoall_binding_1Mo_VS}{{8}{15}{Osu\_alltoall : taille de message 1Mo}{figure.8}{}}
\@writefile{toc}{\contentsline {subsubsection}{\numberline {5.1.3}Choix du binding avec OpenMpi}{15}{subsubsection.5.1.3}}
\@writefile{toc}{\contentsline {subsubsection}{\numberline {5.1.4}IntelMpi VS OpenMpi}{15}{subsubsection.5.1.4}}
\@writefile{lot}{\contentsline {table}{\numberline {1}{\ignorespaces OpenMpi tuned VS Intelmpi en intra-noeud 64PPN et inter-noeud 64PPN pour 4 nœuds , et une taille de message de 1Mo}}{16}{table.1}}
\@writefile{toc}{\contentsline {subsection}{\numberline {5.2}Composant collective shared d'UTK}{16}{subsection.5.2}}
\@writefile{lot}{\contentsline {table}{\numberline {2}{\ignorespaces Openmpi shared VS Intelmpi, intra-noeud, 64PPN, et une taille de message de 1Mo}}{17}{table.2}}
\@writefile{toc}{\contentsline {subsection}{\numberline {5.3}Motivation}{17}{subsection.5.3}}
\@writefile{toc}{\contentsline {subsection}{\numberline {5.4}Implementation}{17}{subsection.5.4}}
\@writefile{toc}{\contentsline {subsubsection}{\numberline {5.4.1}Pairwise Alltoall one sided : inta-noeuds}{17}{subsubsection.5.4.1}}
\@writefile{toc}{\contentsline {subsubsection}{\numberline {5.4.2}Alltoall Bruck one sided : intra-noeud}{18}{subsubsection.5.4.2}}
\@writefile{toc}{\contentsline {subsubsection}{\numberline {5.4.3}Alltoall pairwise one sided : inter-noeuds }{19}{subsubsection.5.4.3}}
\@writefile{lof}{\contentsline {figure}{\numberline {9}{\ignorespaces Exemple de transfert de donnée avec un MPI\_Put}}{20}{figure.9}}
\newlabel{fig:mpi_put}{{9}{20}{Exemple de transfert de donnée avec un MPI\_Put}{figure.9}{}}
\@writefile{toc}{\contentsline {subsection}{\numberline {5.5}Alltoall pairwise one seided hiérarchique}{20}{subsection.5.5}}
\@writefile{toc}{\contentsline {subsubsection}{\numberline {5.5.1}Phase 1:}{20}{subsubsection.5.5.1}}
\@writefile{toc}{\contentsline {subsubsection}{\numberline {5.5.2}Phase 2:}{20}{subsubsection.5.5.2}}
\@writefile{toc}{\contentsline {subsubsection}{\numberline {5.5.3}Phase 3}{20}{subsubsection.5.5.3}}
\@writefile{toc}{\contentsline {subsubsection}{\numberline {5.5.4}Phase 4}{21}{subsubsection.5.5.4}}
\@writefile{toc}{\contentsline {section}{\numberline {6}Les Résultats et Validation}{21}{section.6}}
\@writefile{toc}{\contentsline {subsection}{\numberline {6.1}Intra-noeud}{21}{subsection.6.1}}
\@writefile{toc}{\contentsline {subsubsection}{\numberline {6.1.1}Pairewise}{21}{subsubsection.6.1.1}}
\@writefile{toc}{\contentsline {subsubsection}{\numberline {6.1.2}Bruck}{21}{subsubsection.6.1.2}}
\@writefile{lof}{\contentsline {figure}{\numberline {10}{\ignorespaces Osu\_alltoall : Pairwise algorithme taille de message 1Mo}}{22}{figure.10}}
\newlabel{fig:alltoall_Pairewise_VS}{{10}{22}{Osu\_alltoall : Pairwise algorithme taille de message 1Mo}{figure.10}{}}
\@writefile{lof}{\contentsline {figure}{\numberline {11}{\ignorespaces Osu\_alltoall : Bruck algorithme taille de message 1Ko}}{23}{figure.11}}
\newlabel{fig:alltoall_Pairewise_VS}{{11}{23}{Osu\_alltoall : Bruck algorithme taille de message 1Ko}{figure.11}{}}
\@writefile{toc}{\contentsline {subsection}{\numberline {6.2}Inter-noeud : Pairwise}{23}{subsection.6.2}}
\@writefile{lof}{\contentsline {figure}{\numberline {12}{\ignorespaces Osu\_alltoall: Pairwise algorithme en inter-noeud , sur 2 nœuds et 64PPN, pour une taille de message de 1Mo}}{24}{figure.12}}
\newlabel{fig:alltoall_Pairwise_VS_inter_node}{{12}{24}{Osu\_alltoall: Pairwise algorithme en inter-noeud , sur 2 nœuds et 64PPN, pour une taille de message de 1Mo}{figure.12}{}}
\@writefile{toc}{\contentsline {subsection}{\numberline {6.3}Hiérarchique (intra et inter noeud)}{24}{subsection.6.3}}
\@writefile{toc}{\contentsline {subsection}{\numberline {6.4}Améliorations possibles}{25}{subsection.6.4}}
\@writefile{lof}{\contentsline {figure}{\numberline {13}{\ignorespaces Osu\_alltoall: Pairwise hierachique algortihme , intra et inter nœuds sur 2 nœuds pour une taille de message de 1Mo}}{25}{figure.13}}
\newlabel{fig:alltoall_hirarchique_1Mo}{{13}{25}{Osu\_alltoall: Pairwise hierachique algortihme , intra et inter nœuds sur 2 nœuds pour une taille de message de 1Mo}{figure.13}{}}
\@writefile{toc}{\contentsline {section}{\numberline {7}Conclusion}{26}{section.7}}
\@writefile{toc}{\contentsline {subsection}{\numberline {7.1}Leçons tirées}{26}{subsection.7.1}}
\@writefile{toc}{\contentsline {section}{\numberline {A}Performance en latence shared VS tuned VS intelmpi}{27}{appendix.A}}
\@writefile{toc}{\contentsline {subsection}{\numberline {A.1}bcast}{27}{subsection.A.1}}
\@writefile{lof}{\contentsline {figure}{\numberline {14}{\ignorespaces osu\_bcast intra-noeuds , shared versus tuned versus intelmpi , 64PPN}}{27}{figure.14}}
\@writefile{toc}{\contentsline {subsection}{\numberline {A.2}allreduce}{28}{subsection.A.2}}
\@writefile{lof}{\contentsline {figure}{\numberline {15}{\ignorespaces osu\_allreduce intra-noeuds , shared versus tuned versus intelmpi , 64PPN}}{28}{figure.15}}
\newlabel{utk_perf}{{A.2}{28}{allreduce}{figure.15}{}}
\@writefile{toc}{\contentsline {section}{\numberline {B}Mesure de performance en latence algorithme hierarchique (phase 3 avec MPI\_Put) VS tuned VS intelmpi}{28}{appendix.B}}
\newlabel{hiera_mpi_put}{{B}{28}{Mesure de performance en latence algorithme hierarchique (phase 3 avec MPI\_Put) VS tuned VS intelmpi}{appendix.B}{}}
\bibstyle{abbrv}
\bibcite{xeon}{1}
\bibcite{MPI}{2}
\bibcite{sequana}{3}
\bibcite{one-sided}{4}
\bibcite{CMA}{5}
\bibcite{slurm}{6}
\bibcite{slurm}{7}
\bibcite{mpirun}{8}
\bibcite{Tuning}{9}
\@writefile{lof}{\contentsline {figure}{\numberline {16}{\ignorespaces Latence osu\_alltoall: algo hiérarchique (phase 3 avec MPI\_Put) versus pairwise tuned versus pairwise intelmpi}}{29}{figure.16}}
