\relax 
\providecommand\hyper@newdestlabel[2]{}
\providecommand\HyperFirstAtBeginDocument{\AtBeginDocument}
\HyperFirstAtBeginDocument{\ifx\hyper@anchor\@undefined
\global\let\oldcontentsline\contentsline
\gdef\contentsline#1#2#3#4{\oldcontentsline{#1}{#2}{#3}}
\global\let\oldnewlabel\newlabel
\gdef\newlabel#1#2{\newlabelxx{#1}#2}
\gdef\newlabelxx#1#2#3#4#5#6{\oldnewlabel{#1}{{#2}{#3}}}
\AtEndDocument{\ifx\hyper@anchor\@undefined
\let\contentsline\oldcontentsline
\let\newlabel\oldnewlabel
\fi}
\fi}
\global\let\hyper@last\relax 
\gdef\HyperFirstAtBeginDocument#1{#1}
\providecommand*\HyPL@Entry[1]{}
\HyPL@Entry{0<</P(1)>>}
\@writefile{toc}{\beamer@endinputifotherversion {3.36pt}}
\@writefile{nav}{\beamer@endinputifotherversion {3.36pt}}
\select@language{english}
\@writefile{toc}{\select@language{english}}
\@writefile{lof}{\select@language{english}}
\@writefile{lot}{\select@language{english}}
\pgfsyspdfmark {pgfid1}{0}{11022959}
\@writefile{nav}{\headcommand {\slideentry {0}{0}{1}{1/1}{}{0}}}
\@writefile{nav}{\headcommand {\beamer@framepages {1}{1}}}
\HyPL@Entry{1<</P(2)>>}
\@writefile{nav}{\headcommand {\slideentry {0}{0}{2}{2/2}{}{0}}}
\@writefile{nav}{\headcommand {\beamer@framepages {2}{2}}}
\HyPL@Entry{2<</P(3)>>}
\@writefile{nav}{\headcommand {\partentry {Le Stage}{1}}}
\@writefile{nav}{\headcommand {\beamer@partpages {1}{2}}}
\@writefile{nav}{\headcommand {\beamer@sectionpages {1}{2}}}
\@writefile{nav}{\headcommand {\beamer@subsectionpages {1}{2}}}
\pgfsyspdfmark {pgfid3}{4213656}{16343652}
\pgfsyspdfmark {pgfid2}{745689}{16409188}
\@writefile{nav}{\headcommand {\slideentry {0}{0}{3}{3/3}{}{1}}}
\@writefile{nav}{\headcommand {\beamer@framepages {3}{3}}}
\HyPL@Entry{3<</P(4)>>}
\@writefile{nav}{\headcommand {\slideentry {0}{0}{4}{4/4}{}{1}}}
\@writefile{nav}{\headcommand {\beamer@framepages {4}{4}}}
\HyPL@Entry{4<</P(5)>>}
\@writefile{nav}{\headcommand {\slideentry {0}{0}{5}{5/5}{}{1}}}
\@writefile{nav}{\headcommand {\beamer@framepages {5}{5}}}
\HyPL@Entry{5<</P(6)>>}
\@writefile{nav}{\headcommand {\slideentry {0}{0}{6}{6/6}{}{1}}}
\@writefile{nav}{\headcommand {\beamer@framepages {6}{6}}}
\HyPL@Entry{6<</P(7)>>}
\@writefile{nav}{\headcommand {\slideentry {0}{0}{7}{7/7}{}{1}}}
\@writefile{nav}{\headcommand {\beamer@framepages {7}{7}}}
\HyPL@Entry{7<</P(8)>>}
\@writefile{nav}{\headcommand {\partentry {Openmpi}{2}}}
\@writefile{nav}{\headcommand {\beamer@partpages {3}{7}}}
\@writefile{nav}{\headcommand {\beamer@sectionpages {3}{7}}}
\@writefile{nav}{\headcommand {\beamer@subsectionpages {3}{7}}}
\pgfsyspdfmark {pgfid5}{4996822}{16343652}
\pgfsyspdfmark {pgfid4}{745689}{16409188}
\@writefile{nav}{\headcommand {\slideentry {0}{0}{8}{8/8}{}{2}}}
\@writefile{nav}{\headcommand {\beamer@framepages {8}{8}}}
\HyPL@Entry{8<</P(9)>>}
\@writefile{nav}{\headcommand {\slideentry {0}{0}{9}{9/9}{}{2}}}
\@writefile{nav}{\headcommand {\beamer@framepages {9}{9}}}
\HyPL@Entry{9<</P(10)>>}
\newlabel{fig:alltoall}{{1}{10}{}{Doc-Start}{}}
\@writefile{snm}{\beamer@slide {fig:alltoall}{10}}
\@writefile{nav}{\headcommand {\slideentry {0}{0}{10}{10/10}{}{2}}}
\@writefile{nav}{\headcommand {\beamer@framepages {10}{10}}}
\HyPL@Entry{10<</P(11)>>}
\@writefile{nav}{\headcommand {\slideentry {0}{0}{11}{11/11}{}{2}}}
\@writefile{nav}{\headcommand {\beamer@framepages {11}{11}}}
\HyPL@Entry{11<</P(12)>>}
\@writefile{nav}{\headcommand {\slideentry {0}{0}{12}{12/12}{}{2}}}
\@writefile{nav}{\headcommand {\beamer@framepages {12}{12}}}
\HyPL@Entry{12<</P(13)>>}
\@writefile{nav}{\headcommand {\slideentry {0}{0}{13}{13/13}{}{2}}}
\@writefile{nav}{\headcommand {\beamer@framepages {13}{13}}}
\HyPL@Entry{13<</P(14)>>}
\@writefile{nav}{\headcommand {\slideentry {0}{0}{14}{14/14}{}{2}}}
\@writefile{nav}{\headcommand {\beamer@framepages {14}{14}}}
\HyPL@Entry{14<</P(15)>>}
\@writefile{nav}{\headcommand {\slideentry {0}{0}{15}{15/15}{}{2}}}
\@writefile{nav}{\headcommand {\beamer@framepages {15}{15}}}
\HyPL@Entry{15<</P(16)>>}
\@writefile{nav}{\headcommand {\slideentry {0}{0}{16}{16/16}{}{2}}}
\@writefile{nav}{\headcommand {\beamer@framepages {16}{16}}}
\HyPL@Entry{16<</P(17)>>}
\@writefile{nav}{\headcommand {\slideentry {0}{0}{17}{17/17}{}{2}}}
\@writefile{nav}{\headcommand {\beamer@framepages {17}{17}}}
\HyPL@Entry{17<</P(18)>>}
\@writefile{nav}{\headcommand {\slideentry {0}{0}{18}{18/18}{}{2}}}
\@writefile{nav}{\headcommand {\beamer@framepages {18}{18}}}
\HyPL@Entry{18<</P(19)>>}
\@writefile{nav}{\headcommand {\slideentry {0}{0}{19}{19/19}{}{2}}}
\@writefile{nav}{\headcommand {\beamer@framepages {19}{19}}}
\HyPL@Entry{19<</P(20)>>}
\@writefile{nav}{\headcommand {\slideentry {0}{0}{20}{20/20}{}{2}}}
\@writefile{nav}{\headcommand {\beamer@framepages {20}{20}}}
\HyPL@Entry{20<</P(21)>>}
\@writefile{nav}{\headcommand {\slideentry {0}{0}{21}{21/21}{}{2}}}
\@writefile{nav}{\headcommand {\beamer@framepages {21}{21}}}
\HyPL@Entry{21<</P(22)>>}
\@writefile{nav}{\headcommand {\slideentry {0}{0}{22}{22/22}{}{2}}}
\@writefile{nav}{\headcommand {\beamer@framepages {22}{22}}}
\HyPL@Entry{22<</P(23)>>}
\@writefile{nav}{\headcommand {\slideentry {0}{0}{23}{23/23}{}{2}}}
\@writefile{nav}{\headcommand {\beamer@framepages {23}{23}}}
\HyPL@Entry{23<</P(24)>>}
\@writefile{nav}{\headcommand {\slideentry {0}{0}{24}{24/24}{}{2}}}
\@writefile{nav}{\headcommand {\beamer@framepages {24}{24}}}
\HyPL@Entry{24<</P(25)>>}
\@writefile{nav}{\headcommand {\slideentry {0}{0}{25}{25/25}{}{2}}}
\@writefile{nav}{\headcommand {\beamer@framepages {25}{25}}}
\HyPL@Entry{25<</P(26)>>}
\@writefile{nav}{\headcommand {\slideentry {0}{0}{26}{26/26}{}{2}}}
\@writefile{nav}{\headcommand {\beamer@framepages {26}{26}}}
\HyPL@Entry{26<</P(27)>>}
\@writefile{nav}{\headcommand {\partentry {Implémentations \& Résultats}{3}}}
\@writefile{nav}{\headcommand {\beamer@partpages {8}{26}}}
\@writefile{nav}{\headcommand {\beamer@sectionpages {8}{26}}}
\@writefile{nav}{\headcommand {\beamer@subsectionpages {8}{26}}}
\pgfsyspdfmark {pgfid7}{4913284}{16260115}
\pgfsyspdfmark {pgfid6}{745689}{16409188}
\@writefile{nav}{\headcommand {\slideentry {0}{0}{27}{27/27}{}{3}}}
\@writefile{nav}{\headcommand {\beamer@framepages {27}{27}}}
\HyPL@Entry{27<</P(28)>>}
\@writefile{nav}{\headcommand {\slideentry {0}{0}{28}{28/28}{}{3}}}
\@writefile{nav}{\headcommand {\beamer@framepages {28}{28}}}
\HyPL@Entry{28<</P(29)>>}
\@writefile{nav}{\headcommand {\slideentry {0}{0}{29}{29/29}{}{3}}}
\@writefile{nav}{\headcommand {\beamer@framepages {29}{29}}}
\HyPL@Entry{29<</P(30)>>}
\@writefile{nav}{\headcommand {\slideentry {0}{0}{30}{30/30}{}{3}}}
\@writefile{nav}{\headcommand {\beamer@framepages {30}{30}}}
\HyPL@Entry{30<</P(31)>>}
\@writefile{nav}{\headcommand {\slideentry {0}{0}{31}{31/31}{}{3}}}
\@writefile{nav}{\headcommand {\beamer@framepages {31}{31}}}
\HyPL@Entry{31<</P(32)>>}
\@writefile{nav}{\headcommand {\slideentry {0}{0}{32}{32/32}{}{3}}}
\@writefile{nav}{\headcommand {\beamer@framepages {32}{32}}}
\HyPL@Entry{32<</P(33)>>}
\@writefile{nav}{\headcommand {\slideentry {0}{0}{33}{33/33}{}{3}}}
\@writefile{nav}{\headcommand {\beamer@framepages {33}{33}}}
\HyPL@Entry{33<</P(34)>>}
\@writefile{nav}{\headcommand {\slideentry {0}{0}{34}{34/34}{}{3}}}
\@writefile{nav}{\headcommand {\beamer@framepages {34}{34}}}
\HyPL@Entry{34<</P(35)>>}
\@writefile{nav}{\headcommand {\slideentry {0}{0}{35}{35/35}{}{3}}}
\@writefile{nav}{\headcommand {\beamer@framepages {35}{35}}}
\HyPL@Entry{35<</P(36)>>}
\@writefile{nav}{\headcommand {\partentry {Conclusion}{4}}}
\@writefile{nav}{\headcommand {\beamer@partpages {27}{35}}}
\@writefile{nav}{\headcommand {\beamer@sectionpages {27}{35}}}
\@writefile{nav}{\headcommand {\beamer@subsectionpages {27}{35}}}
\pgfsyspdfmark {pgfid9}{5085581}{16343652}
\pgfsyspdfmark {pgfid8}{745689}{16409188}
\@writefile{nav}{\headcommand {\slideentry {0}{0}{36}{36/36}{}{4}}}
\@writefile{nav}{\headcommand {\beamer@framepages {36}{36}}}
\HyPL@Entry{36<</P(37)>>}
\@writefile{nav}{\headcommand {\slideentry {0}{0}{37}{37/37}{}{4}}}
\@writefile{nav}{\headcommand {\beamer@framepages {37}{37}}}
\bibcite{MPI}{\hyperlink {beamerbibMPI}{1}}
\bibcite{sequana}{\hyperlink {beamerbibsequana}{2}}
\bibcite{slurm2}{\hyperlink {beamerbibslurm2}{3}}
\bibcite{mpirun}{\hyperlink {beamerbibmpirun}{4}}
\bibcite{one-sided}{\hyperlink {beamerbibone-sided}{5}}
\bibcite{Tuning}{\hyperlink {beamerbibTuning}{6}}
\HyPL@Entry{37<</P(38)>>}
\@writefile{nav}{\headcommand {\slideentry {0}{0}{38}{38/38}{}{4}}}
\@writefile{nav}{\headcommand {\beamer@framepages {38}{38}}}
\HyPL@Entry{38<</P(39)>>}
\pgfsyspdfmark {pgfid10}{0}{15517898}
\@writefile{nav}{\headcommand {\slideentry {0}{0}{39}{39/39}{}{4}}}
\@writefile{nav}{\headcommand {\beamer@framepages {39}{39}}}
\@writefile{nav}{\headcommand {\beamer@partpages {36}{39}}}
\@writefile{nav}{\headcommand {\beamer@subsectionpages {36}{39}}}
\@writefile{nav}{\headcommand {\beamer@sectionpages {36}{39}}}
\@writefile{nav}{\headcommand {\beamer@documentpages {39}}}
\@writefile{nav}{\headcommand {\def \inserttotalframenumber {39}}}
